[
    {
        "id": 1,
        "name": "USA",
        "selected": true,
        "location": "New York",
        "image": "assets/Images/USA.jpg"
    },
    {
        "id": 2,
        "name": "DUBAI",
        "selected": false,
        "location": "The Palm Jumeriah",
        "image": "assets/Images/DUBAI.jpg"
    },
    {
        "id": 3,
        "name": "AUSTRAILIA",
        "selected": false,
        "location": "Sydney",
        "image": "assets/Images/AUSTRAILIA.jpg"
    },
    {
        "id": 4,
        "name": "INDIA",
        "selected": true,
        "location": "Taj Mahal",
        "image": "assets/Images/INDIA.jpg"
    },
    {
        "id": 5,
        "name": "England",
        "selected": true,
        "location": "London",
        "image": "assets/Images/USA.jpg"
    },
    {
        "id": 6,
        "name": "Thailand",
        "location": "Bangkok",
        "selected": false,
        "image": "assets/Images/DUBAI.jpg"
    },
    {
        "id": 7,
        "name": "Italy",
        "location": "Rome",
        "selected": true,
        "image": "assets/Images/USA.jpg"
    },
    {
        "id": 8,
        "name": "China",
        "location": "Macau",
        "selected": false,
        "image": "assets/Images/DUBAI.jpg"
    },
    {
        "id": 9,
        "name": "Turkey",
        "location": "Istanbul",
        "selected": false,
        "image": "assets/Images/DUBAI.jpg"
    }
]